cps analysis covid
…
cpsdat%>%
  filter(race_eth2!="NHPI.Not Latino", race_eth2!="AIAE.Not Latino",race_eth2!="multiple.Not Latino",
         race_eth2!="Asian.Not Latino")%>%
  group_by(month, sex )%>%
  summarise(#unemprate =(wtd.mean(recentloss,weights = WTFINL, na.rm=T)),
         # avghrs=wtd.mean(AHRSWORKT,weights = WTFINL, na.rm=T),
          emprate =(1- wtd.mean(curremp,weights = WTFINL, na.rm=T)))%>%
  arrange( month)%>%
  ungroup()%>%
  arrange( sex, month )

## `summarise()` has grouped output by 'month'. You can override using the `.groups` argument.

## # A tibble: 32 x 3
##    month      sex    emprate
##    <date>     <fct>    <dbl>
##  1 2020-02-01 Female  0.0335
##  2 2020-03-01 Female  0.0409
##  3 2020-04-01 Female  0.156 
##  4 2020-05-01 Female  0.139 
##  5 2020-06-01 Female  0.116 
##  6 2020-07-01 Female  0.109 
##  7 2020-08-01 Female  0.0860
##  8 2020-09-01 Female  0.0764
##  9 2020-10-01 Female  0.0621
## 10 2020-11-01 Female  0.0593
## # ... with 22 more rows
…
